{
  "type": "service_account",
  "project_id": "myproject-cbb4b",
  "private_key_id": "ac598427052a10392926482e27b61f35844398ae",
  "private_key": "-----BEGIN PRIVATE KEY-----\nMIIEvgIBADANBgkqhkiG9w0BAQEFAASCBKgwggSkAgEAAoIBAQDgJmQxSw75H/Xp\nA2++lDsiB8XJCruVeWmtvdpDan1YWJQXVnbjKo1tFKy9Kcp3h3z2N8PRMbVEJEuP\n1bxUTuacGmf0Lum3Gra1Sv8iEpScSp+vLA64wi3TpYSq5DBnHK0VbEXsrdEKAVpF\nX9cr3fHgyGsmBWM5XAcdbfGtja+eC4Fs110KArT8pPQURsMYy9y6f60saVW9dmrd\nGmpeoa2nrRxLH9N/uWTXiuZct5ayTIbMQbPINlLkj4IziqUHgP4mjSnzNzTt983B\nWh1+cu7QGOA50pB2b75BoctSc5DLn773MoBTGo4P7ZF8VtaXEu1qu1I+g/xcEMOe\nFC/WvK2RAgMBAAECggEAHe+9XECtjcPhKHnp2owFP8dw+NJNo6oqXTwozUMziBvr\nH24lWl6hsoAF4re/pOomsY2uF0o/xDY4FKGTpwuTTNBRXPFHtp7t6FWisI7HDqlV\ncrmmzQc7bp5saGnUixjvMZgbLf/i63wAbe6IbYFAH5OKN/LqlyES3tvYYM5hC5w2\nvNVkzR9DqLu3nHOhOuCpCr7E+atNui5C3k3xsS8SPyK656Tt/9ZYR0YPwQPgRnkA\njTn01cEfHhFRPhrLoLA3oqkHw1qLvFTA06FsAD7D/+/yRrdkA7ynBuKLBRYK6mNc\n22T8cTJAI21IYkAwEIJqEBmJ9dq7ef2YQcvrOOQUVwKBgQD5LbXWLTLTeTPhINMU\n8PtHvfSg5Oq7oY0zu77K5EvCoToU/jWpUW9tryiGq0KPjRkmzT5p7gnpdS2BDuLS\noUYn1g1xwKL4oA7Dlwp9x9scZ3OIcbubtwlznNUk8UXugDVPNQY9zCMCkIwgWkEe\nh6KoHJpyNKAB29JVA2L88BvZOwKBgQDmSUasGqeBisqWEXeyUDgBDLZ/qcNwfXPL\nVMphDgJYSdduAd/4/jhV4fNoRm+kiU1vF0xE9jLrGB/SkYxj+GjLmAirSwGmA47k\nzgXBSiFInza/D2P/ViHfoVsbvep59E7dC22jWKcLp9taDQZAm2dm1RV9vYYr6won\ngt/jJyZHowKBgQD4ijB6XgD5UEaAAnaox6lMKNuNdGfyGTS3akfnJgmvK5O8hsdN\niK3FUNXyZXZxqwJwYn4juMvoMfneZdO21igc6fPlB4lGxpeTXd+YEDWsQj/J0++W\nZN6nk8JCI+pl9zm1NKVyFGDDWRx71KppYk7KsiUXTwhecj18kHE26+RLKwKBgQCG\nScq9h9mQUCgs9MixIdhWvFwb/BotGesRckOF705sv7qxusQqBc1CP73aW+C0uSB/\nnL1sJYmx0GKWPyv4DB7IQsMjaFzwu3hzcrSmb50TJU0eg1ITzt139DcV6Vy3e0EV\n45kuvP7EbEEctSWlPTpCHBYpOgDo0WodelMmumi3MwKBgBRM5KLU6gKq9O9zCBUF\nvy+q8sUQxyC96X2/LYCOLoZ6YiyfeUu91BLW29ChR8racvWEvPHr87oJha5yE5AK\nPiGs198LmWQ7onfF8wAcKzIh7wZ2qWRF0qxnk6dfqHCVO26KnM6ycG33Q0/Ioy04\nXh+m+wlm+10QuOQaIGttB38U\n-----END PRIVATE KEY-----\n",
  "client_email": "firebase-adminsdk-zj6oi@myproject-cbb4b.iam.gserviceaccount.com",
  "client_id": "114137492693623859438",
  "auth_uri": "https://accounts.google.com/o/oauth2/auth",
  "token_uri": "https://oauth2.googleapis.com/token",
  "auth_provider_x509_cert_url": "https://www.googleapis.com/oauth2/v1/certs",
  "client_x509_cert_url": "https://www.googleapis.com/robot/v1/metadata/x509/firebase-adminsdk-zj6oi%40myproject-cbb4b.iam.gserviceaccount.com"
}
